1)sudo apt-get update

2)sudo apt-get install mysql-server

3)mysql_secure_installation
provide password for root for simplicity

4)set bind address to all
vim /etc/mysql/mysql.conf.d/mysqld.cnf

bind-address = 127.0.0.1

changed to 

#bind-address = 127.0.0.1


5)allow root to remotely access mysql

login with mysql

sudo mysql -p -u root

GRANT ALL PRIVILEGES ON *.* TO 'root'@'%' IDENTIFIED BY 'password';


*************************************************
*************************************************
*************************************************
use mysql_grant_user.sh
